…
---

    Code
      plotData1
    Output
      # A tibble: 63 x 13
         GROUPNAME GROUPNAM~1 COVEFF COVNAME PARAM~2 PARAM~3 STATI~4   REF point    q1
         <fct>     <fct>      <lgl>  <fct>   <fct>   <fct>   <fct>   <dbl> <dbl> <dbl>
       1 NCI       NCI        TRUE   NCI=0   CL      CL      CL          1 0.986 0.943
       2 NCI       NCI        TRUE   NCI=0   Frel    Frel    Frel        1 1.01  0.986
       3 NCI       NCI        TRUE   NCI=0   AUC     AUC     AUC         1 1.01  0.985
       4 NCI       NCI        TRUE   NCI>0   CL      CL      CL          1 1.03  0.987
       5 NCI       NCI        FALSE  NCI>0   Frel    Frel    Frel        1 1     0.981
       6 NCI       NCI        TRUE   NCI>0   AUC     AUC     AUC         1 0.951 0.919
       7 FORM      FORM       TRUE   Oral t~ CL      CL      CL          1 1.01  0.965
       8 FORM      FORM       FALSE  Oral t~ Frel    Frel    Frel        1 1     0.981
       9 FORM      FORM       TRUE   Oral t~ AUC     AUC     AUC         1 0.932 0.904
      10 FORM      FORM       TRUE   FDC     CL      CL      CL          1 0.959 0.915
      # ... with 53 more rows, 3 more variables: q2 <dbl>, reference <chr>,
      #   STATISTIC <chr>, and abbreviated variable names 1: GROUPNAMELABEL,
      #   2: PARAMETER, 3: PARAMETERLABEL, 4: STATISTICSLABEL

---

    Code
      plotData2
    Output
      # A tibble: 63 x 13
         GROUPNAME GROUP~1 COVEFF COVNAME PARAM~2 PARAM~3 STATI~4    REF  point     q1
         <fct>     <fct>   <lgl>  <fct>   <fct>   <fct>   <fct>    <dbl>  <dbl>  <dbl>
       1 NCI       NCI     TRUE   NCI=0   CL      CL      CL      13.5   13.3   12.7  
       2 NCI       NCI     TRUE   NCI=0   Frel    Frel    Frel     0.854  0.862  0.842
       3 NCI       NCI     TRUE   NCI=0   AUC     AUC     AUC      5.17   5.20   5.09 
       4 NCI       NCI     TRUE   NCI>0   CL      CL      CL      13.5   13.9   13.3  
       5 NCI       NCI     FALSE  NCI>0   Frel    Frel    Frel     0.854  0.854  0.838
       6 NCI       NCI     TRUE   NCI>0   AUC     AUC     AUC      5.17   4.91   4.75 
       7 FORM      FORM    TRUE   Oral t~ CL      CL      CL      13.5   13.6   13.0  
       8 FORM      FORM    FALSE  Oral t~ Frel    Frel    Frel     0.854  0.854  0.838
       9 FORM      FORM    TRUE   Oral t~ AUC     AUC     AUC      5.17   4.81   4.67 
      10 FORM      FORM    TRUE   FDC     CL      CL      CL      13.5   12.9   12.4  
      # ... with 53 more rows, 3 more variables: q2 <dbl>, reference <chr>,
      #   STATISTIC <chr>, and abbreviated variable names 1: GROUPNAMELABEL,
      #   2: PARAMETER, 3: PARAMETERLABEL, 4: STATISTICSLABEL

---

    Code
      plotData4
    Output
      # A tibble: 63 x 13
         GROUPNAME GROUP~1 COVEFF COVNAME PARAM~2 PARAM~3 STATI~4    REF  point     q1
         <fct>     <fct>   <lgl>  <fct>   <fct>   <fct>   <fct>    <dbl>  <dbl>  <dbl>
       1 NCI       Formul~ TRUE   NCI=0   CL      CL (L/~ CL (L/~ 13.5   13.3   12.7  
       2 NCI       Formul~ TRUE   NCI=0   Frel    V (L)   V (L)    0.854  0.862  0.842
       3 NCI       Formul~ TRUE   NCI=0   AUC     Frel    Frel     5.17   5.20   5.09 
       4 NCI       Formul~ TRUE   NCI>0   CL      CL (L/~ CL (L/~ 13.5   13.9   13.3  
       5 NCI       Formul~ FALSE  NCI>0   Frel    V (L)   V (L)    0.854  0.854  0.838
       6 NCI       Formul~ TRUE   NCI>0   AUC     Frel    Frel     5.17   4.91   4.75 
       7 FORM      Food s~ TRUE   Oral t~ CL      CL (L/~ CL (L/~ 13.5   13.6   13.0  
       8 FORM      Food s~ FALSE  Oral t~ Frel    V (L)   V (L)    0.854  0.854  0.838
       9 FORM      Food s~ TRUE   Oral t~ AUC     Frel    Frel     5.17   4.81   4.67 
      10 FORM      Food s~ TRUE   FDC     CL      CL (L/~ CL (L/~ 13.5   12.9   12.4  
      # ... with 53 more rows, 3 more variables: q2 <dbl>, reference <chr>,
      #   STATISTIC <chr>, and abbreviated variable names 1: GROUPNAMELABEL,
      #   2: PARAMETER, 3: PARAMETERLABEL, 4: STATISTICSLABEL
