…
---

    Code
      plotData1
    Output
      # A tibble: 63 x 13
         GROUPNAME GROUPNAM~1 COVEFF COVNAME PARAM~2 PARAM~3 STATI~4   REF point    q1
         <fct>     <fct>      <lgl>  <fct>   <fct>   <fct>   <fct>   <dbl> <dbl> <dbl>
       1 NCIL      NCIL       FALSE  NCI=0   CL      CL      CL          1 1     0.956
       2 NCIL      NCIL       FALSE  NCI=0   Frel    Frel    Frel        1 1     1    
       3 NCIL      NCIL       FALSE  NCI=0   AUC     AUC     AUC         1 1     0.962
       4 NCIL      NCIL       FALSE  NCI>0   CL      CL      CL          1 1     0.956
       5 NCIL      NCIL       FALSE  NCI>0   Frel    Frel    Frel        1 1     1    
       6 NCIL      NCIL       FALSE  NCI>0   AUC     AUC     AUC         1 1     0.962
       7 FORM      FORM       FALSE  Oral t~ CL      CL      CL          1 1     0.956
       8 FORM      FORM       TRUE   Oral t~ Frel    Frel    Frel        1 0.854 0.838
       9 FORM      FORM       TRUE   Oral t~ AUC     AUC     AUC         1 0.854 0.814
      10 FORM      FORM       FALSE  FDC     CL      CL      CL          1 1     0.956
      # ... with 53 more rows, 3 more variables: q2 <dbl>, reference <chr>,
      #   STATISTIC <chr>, and abbreviated variable names 1: GROUPNAMELABEL,
      #   2: PARAMETER, 3: PARAMETERLABEL, 4: STATISTICSLABEL

---

    Code
      plotData2
    Output
      # A tibble: 63 x 13
         GROUPNAME GROUPN~1 COVEFF COVNAME PARAM~2 PARAM~3 STATI~4   REF  point     q1
         <fct>     <fct>    <lgl>  <fct>   <fct>   <fct>   <fct>   <dbl>  <dbl>  <dbl>
       1 NCIL      NCIL     FALSE  NCI=0   CL      CL      CL      11.9  11.9   11.4  
       2 NCIL      NCIL     FALSE  NCI=0   Frel    Frel    Frel     1     1      1    
       3 NCIL      NCIL     FALSE  NCI=0   AUC     AUC     AUC      6.71  6.71   6.45 
       4 NCIL      NCIL     FALSE  NCI>0   CL      CL      CL      11.9  11.9   11.4  
       5 NCIL      NCIL     FALSE  NCI>0   Frel    Frel    Frel     1     1      1    
       6 NCIL      NCIL     FALSE  NCI>0   AUC     AUC     AUC      6.71  6.71   6.45 
       7 FORM      FORM     FALSE  Oral t~ CL      CL      CL      11.9  11.9   11.4  
       8 FORM      FORM     TRUE   Oral t~ Frel    Frel    Frel     1     0.854  0.838
       9 FORM      FORM     TRUE   Oral t~ AUC     AUC     AUC      6.71  5.73   5.46 
      10 FORM      FORM     FALSE  FDC     CL      CL      CL      11.9  11.9   11.4  
      # ... with 53 more rows, 3 more variables: q2 <dbl>, reference <chr>,
      #   STATISTIC <chr>, and abbreviated variable names 1: GROUPNAMELABEL,
      #   2: PARAMETER, 3: PARAMETERLABEL, 4: STATISTICSLABEL

---

    Code
      plotData4
    Output
      # A tibble: 63 x 13
         GROUPNAME GROUPN~1 COVEFF COVNAME PARAM~2 PARAM~3 STATI~4   REF  point     q1
         <fct>     <fct>    <lgl>  <fct>   <fct>   <fct>   <fct>   <dbl>  <dbl>  <dbl>
       1 NCIL      NCI      FALSE  NCI=0   CL      CL (L/~ CL (L/~ 11.9  11.9   11.4  
       2 NCIL      NCI      FALSE  NCI=0   Frel    V (L)   V (L)    1     1      1    
       3 NCIL      NCI      FALSE  NCI=0   AUC     Frel    Frel     6.71  6.71   6.45 
       4 NCIL      NCI      FALSE  NCI>0   CL      CL (L/~ CL (L/~ 11.9  11.9   11.4  
       5 NCIL      NCI      FALSE  NCI>0   Frel    V (L)   V (L)    1     1      1    
       6 NCIL      NCI      FALSE  NCI>0   AUC     Frel    Frel     6.71  6.71   6.45 
       7 FORM      Formula~ FALSE  Oral t~ CL      CL (L/~ CL (L/~ 11.9  11.9   11.4  
       8 FORM      Formula~ TRUE   Oral t~ Frel    V (L)   V (L)    1     0.854  0.838
       9 FORM      Formula~ TRUE   Oral t~ AUC     Frel    Frel     6.71  5.73   5.46 
      10 FORM      Formula~ FALSE  FDC     CL      CL (L/~ CL (L/~ 11.9  11.9   11.4  
      # ... with 53 more rows, 3 more variables: q2 <dbl>, reference <chr>,
      #   STATISTIC <chr>, and abbreviated variable names 1: GROUPNAMELABEL,
      #   2: PARAMETER, 3: PARAMETERLABEL, 4: STATISTICSLABEL

---

    Code
      plotData5
    Output
      # A tibble: 36 x 13
         GROUPNAME GROUPNAM~1 COVEFF COVNAME PARAM~2 PARAM~3 STATI~4   REF point    q1
         <fct>     <fct>      <lgl>  <fct>   <fct>   <fct>   <fct>   <dbl> <dbl> <dbl>
       1 FORM      FORM       FALSE  Oral t~ CL      CL      CL          1 1     0.956
       2 FORM      FORM       TRUE   Oral t~ Frel    Frel    Frel        1 0.854 0.838
       3 FORM      FORM       TRUE   Oral t~ AUC     AUC     AUC         1 0.854 0.814
       4 FORM      FORM       FALSE  FDC     CL      CL      CL          1 1     0.956
       5 FORM      FORM       FALSE  FDC     Frel    Frel    Frel        1 1     1    
       6 FORM      FORM       FALSE  FDC     AUC     AUC     AUC         1 1     0.962
       7 FOOD      FOOD       TRUE   Fasted  CL      CL      CL          1 1.25  1.20 
       8 FOOD      FOOD       FALSE  Fasted  Frel    Frel    Frel        1 1     1    
       9 FOOD      FOOD       TRUE   Fasted  AUC     AUC     AUC         1 0.801 0.771
      10 FOOD      FOOD       FALSE  Fed     CL      CL      CL          1 1     0.956
      # ... with 26 more rows, 3 more variables: q2 <dbl>, reference <chr>,
      #   STATISTIC <chr>, and abbreviated variable names 1: GROUPNAMELABEL,
      #   2: PARAMETER, 3: PARAMETERLABEL, 4: STATISTICSLABEL
