…
---

    Code
      plotData1
    Output
      # A tibble: 84 x 13
         GROUPNAME GROUPNAM~1 COVEFF COVNAME PARAM~2 PARAM~3 STATI~4   REF point    q1
         <fct>     <fct>      <lgl>  <fct>   <fct>   <fct>   <fct>   <dbl> <dbl> <dbl>
       1 NCIL      NCIL       TRUE   NCI=0   CL      CL      CL          1 0.993 0.882
       2 NCIL      NCIL       TRUE   NCI=0   FREL    FREL    FREL        1 0.961 0.860
       3 NCIL      NCIL       TRUE   NCI=0   V       V       V           1 0.989 0.940
       4 NCIL      NCIL       TRUE   NCI>0   CL      CL      CL          1 0.994 0.705
       5 NCIL      NCIL       TRUE   NCI>0   FREL    FREL    FREL        1 1.25  0.797
       6 NCIL      NCIL       TRUE   NCI>0   V       V       V           1 1.06  0.869
       7 FORM      FORM       FALSE  Oral t~ CL      CL      CL          1 1     0.937
       8 FORM      FORM       TRUE   Oral t~ FREL    FREL    FREL        1 0.854 0.828
       9 FORM      FORM       FALSE  Oral t~ V       V       V           1 1     0.967
      10 FORM      FORM       FALSE  FDC     CL      CL      CL          1 1     0.937
      # ... with 74 more rows, 3 more variables: q2 <dbl>, reference <chr>,
      #   STATISTIC <chr>, and abbreviated variable names 1: GROUPNAMELABEL,
      #   2: PARAMETER, 3: PARAMETERLABEL, 4: STATISTICSLABEL

---

    Code
      plotData2
    Output
      # A tibble: 84 x 13
         GROUPN~1 GROUP~2 COVEFF COVNAME PARAM~3 PARAM~4 STATI~5   REF   point      q1
         <fct>    <fct>   <lgl>  <fct>   <fct>   <fct>   <fct>   <dbl>   <dbl>   <dbl>
       1 NCIL     NCIL    TRUE   NCI=0   CL      CL      CL       12.6  12.5    11.1  
       2 NCIL     NCIL    TRUE   NCI=0   FREL    FREL    FREL      1     0.961   0.860
       3 NCIL     NCIL    TRUE   NCI=0   V       V       V       206.  203.    193.   
       4 NCIL     NCIL    TRUE   NCI>0   CL      CL      CL       12.6  12.5     8.86 
       5 NCIL     NCIL    TRUE   NCI>0   FREL    FREL    FREL      1     1.25    0.797
       6 NCIL     NCIL    TRUE   NCI>0   V       V       V       206.  218.    179.   
       7 FORM     FORM    FALSE  Oral t~ CL      CL      CL       12.6  12.6    11.8  
       8 FORM     FORM    TRUE   Oral t~ FREL    FREL    FREL      1     0.854   0.828
       9 FORM     FORM    FALSE  Oral t~ V       V       V       206.  206.    199.   
      10 FORM     FORM    FALSE  FDC     CL      CL      CL       12.6  12.6    11.8  
      # ... with 74 more rows, 3 more variables: q2 <dbl>, reference <chr>,
      #   STATISTIC <chr>, and abbreviated variable names 1: GROUPNAME,
      #   2: GROUPNAMELABEL, 3: PARAMETER, 4: PARAMETERLABEL, 5: STATISTICSLABEL

---

    Code
      plotData4
    Output
      # A tibble: 84 x 13
         GROUPN~1 GROUP~2 COVEFF COVNAME PARAM~3 PARAM~4 STATI~5   REF   point      q1
         <fct>    <fct>   <lgl>  <fct>   <fct>   <fct>   <fct>   <dbl>   <dbl>   <dbl>
       1 NCIL     NCI     TRUE   NCI=0   CL      CL (L/~ CL (L/~  12.6  12.5    11.1  
       2 NCIL     NCI     TRUE   NCI=0   FREL    V (L)   V (L)     1     0.961   0.860
       3 NCIL     NCI     TRUE   NCI=0   V       Frel    Frel    206.  203.    193.   
       4 NCIL     NCI     TRUE   NCI>0   CL      CL (L/~ CL (L/~  12.6  12.5     8.86 
       5 NCIL     NCI     TRUE   NCI>0   FREL    V (L)   V (L)     1     1.25    0.797
       6 NCIL     NCI     TRUE   NCI>0   V       Frel    Frel    206.  218.    179.   
       7 FORM     Formul~ FALSE  Oral t~ CL      CL (L/~ CL (L/~  12.6  12.6    11.8  
       8 FORM     Formul~ TRUE   Oral t~ FREL    V (L)   V (L)     1     0.854   0.828
       9 FORM     Formul~ FALSE  Oral t~ V       Frel    Frel    206.  206.    199.   
      10 FORM     Formul~ FALSE  FDC     CL      CL (L/~ CL (L/~  12.6  12.6    11.8  
      # ... with 74 more rows, 3 more variables: q2 <dbl>, reference <chr>,
      #   STATISTIC <chr>, and abbreviated variable names 1: GROUPNAME,
      #   2: GROUPNAMELABEL, 3: PARAMETER, 4: PARAMETERLABEL, 5: STATISTICSLABEL
