…
---

    Code
      plotData1
    Output
      # A tibble: 84 x 13
         GROUPNAME GROUPNAM~1 COVEFF COVNAME PARAM~2 PARAM~3 STATI~4   REF point    q1
         <fct>     <fct>      <lgl>  <fct>   <fct>   <fct>   <fct>   <dbl> <dbl> <dbl>
       1 NCIL      NCIL       TRUE   NCI=0   CL      CL      CL          1 0.996 0.878
       2 NCIL      NCIL       TRUE   NCI=0   FREL    FREL    FREL        1 0.954 0.847
       3 NCIL      NCIL       TRUE   NCI=0   V       V       V           1 0.983 0.928
       4 NCIL      NCIL       TRUE   NCI>0   CL      CL      CL          1 0.984 0.783
       5 NCIL      NCIL       TRUE   NCI>0   FREL    FREL    FREL        1 1.30  0.897
       6 NCIL      NCIL       TRUE   NCI>0   V       V       V           1 1.06  0.778
       7 FORM      FORM       FALSE  Oral t~ CL      CL      CL          1 1     0.943
       8 FORM      FORM       TRUE   Oral t~ FREL    FREL    FREL        1 0.853 0.822
       9 FORM      FORM       FALSE  Oral t~ V       V       V           1 1     0.962
      10 FORM      FORM       FALSE  FDC     CL      CL      CL          1 1     0.943
      # ... with 74 more rows, 3 more variables: q2 <dbl>, reference <chr>,
      #   STATISTIC <chr>, and abbreviated variable names 1: GROUPNAMELABEL,
      #   2: PARAMETER, 3: PARAMETERLABEL, 4: STATISTICSLABEL

---

    Code
      plotData2
    Output
      # A tibble: 84 x 13
         GROUPN~1 GROUP~2 COVEFF COVNAME PARAM~3 PARAM~4 STATI~5   REF   point      q1
         <fct>    <fct>   <lgl>  <fct>   <fct>   <fct>   <fct>   <dbl>   <dbl>   <dbl>
       1 NCIL     NCIL    TRUE   NCI=0   CL      CL      CL       12.5  12.4    10.9  
       2 NCIL     NCIL    TRUE   NCI=0   FREL    FREL    FREL      1     0.954   0.847
       3 NCIL     NCIL    TRUE   NCI=0   V       V       V       207.  203.    192.   
       4 NCIL     NCIL    TRUE   NCI>0   CL      CL      CL       12.5  12.3     9.75 
       5 NCIL     NCIL    TRUE   NCI>0   FREL    FREL    FREL      1     1.30    0.897
       6 NCIL     NCIL    TRUE   NCI>0   V       V       V       207.  220.    161.   
       7 FORM     FORM    FALSE  Oral t~ CL      CL      CL       12.5  12.5    11.7  
       8 FORM     FORM    TRUE   Oral t~ FREL    FREL    FREL      1     0.853   0.822
       9 FORM     FORM    FALSE  Oral t~ V       V       V       207.  207.    199.   
      10 FORM     FORM    FALSE  FDC     CL      CL      CL       12.5  12.5    11.7  
      # ... with 74 more rows, 3 more variables: q2 <dbl>, reference <chr>,
      #   STATISTIC <chr>, and abbreviated variable names 1: GROUPNAME,
      #   2: GROUPNAMELABEL, 3: PARAMETER, 4: PARAMETERLABEL, 5: STATISTICSLABEL

---

    Code
      plotData4
    Output
      # A tibble: 84 x 13
         GROUPN~1 GROUP~2 COVEFF COVNAME PARAM~3 PARAM~4 STATI~5   REF   point      q1
         <fct>    <fct>   <lgl>  <fct>   <fct>   <fct>   <fct>   <dbl>   <dbl>   <dbl>
       1 NCIL     NCI     TRUE   NCI=0   CL      CL (L/~ CL (L/~  12.5  12.4    10.9  
       2 NCIL     NCI     TRUE   NCI=0   FREL    V (L)   V (L)     1     0.954   0.847
       3 NCIL     NCI     TRUE   NCI=0   V       Frel    Frel    207.  203.    192.   
       4 NCIL     NCI     TRUE   NCI>0   CL      CL (L/~ CL (L/~  12.5  12.3     9.75 
       5 NCIL     NCI     TRUE   NCI>0   FREL    V (L)   V (L)     1     1.30    0.897
       6 NCIL     NCI     TRUE   NCI>0   V       Frel    Frel    207.  220.    161.   
       7 FORM     Formul~ FALSE  Oral t~ CL      CL (L/~ CL (L/~  12.5  12.5    11.7  
       8 FORM     Formul~ TRUE   Oral t~ FREL    V (L)   V (L)     1     0.853   0.822
       9 FORM     Formul~ FALSE  Oral t~ V       Frel    Frel    207.  207.    199.   
      10 FORM     Formul~ FALSE  FDC     CL      CL (L/~ CL (L/~  12.5  12.5    11.7  
      # ... with 74 more rows, 3 more variables: q2 <dbl>, reference <chr>,
      #   STATISTIC <chr>, and abbreviated variable names 1: GROUPNAME,
      #   2: GROUPNAMELABEL, 3: PARAMETER, 4: PARAMETERLABEL, 5: STATISTICSLABEL
